﻿ID,JP,EN,VN,Note
0,,SINGLE,CHƠI ĐƠN,
1,,MULTIPLAYER,CHƠI MẠNG,
2,,OPTION,TÙY CHỌN,
3,,MAP,BẢN ĐỒ,
4,,CREDITS,NGƯỜI LÀM,
5,,SELECT FACTIONS,CHỌN PHE,
6,,RED TEAM,ĐỘI ĐỎ,
7,,BLUE TEAM,ĐỘI XANH,
8,,SFX,Hiệu ứng,
9,,MUSIC,Nhạc nền,
10,,LANGUAGE,NGÔN NGỮ,
11,,English,Anh,
12,,Viet Nam,Việt Nam,
13,,lv,Cấp,
14,,TOWER,THÁP,
15,,Level,Cấp,
16,,HP,Máu,
17,,Point In Game,Điểm Trong Trò chơi,
18,,HERO,Anh Hùng,
19,,Slot,Ô,
20,,BUY,MUA,
21,,You want to upgrade the tower for price {0}?, bạn muốn nâng cấp tháp với giá {0} ?,
22,,Not enough money,Không đủ tiền,
23,,please check !!!,vui lòng kiểm tra lại !!!,
24,,MESSAGE,Tin Nhắn,
25,,Buy success !!!,Mua Thành công !!!, 
26,,MATCH,TRẬN ĐẤU, 
27,,Name:,Tên:,
28,,Enter text...,Nhập ký tự...,
29,,Character Limmit: 8 ==> 10,Ký tự giới hạn: 8 ==> 10,
30,,Yes,CÓ,
31,,No,KHÔNG,
32,,Please select hero !!!,Vui lòng chọn anh hùng !!!,
33,,Please input character !!!,Vui lòng nhập tên !!!,
34,,No internet connected server,Không có mạng kết nối máy chủ,
35,,Server Disconnected !!!,máy chủ mất kết nối,
36,,Waiting player join match....,Chờ người chơi tham gia trận đấu....,
37,,Create game....,Tạo Trò Chơi....,
38,,Press any touch to continue....,Nhấn bất kỳ để tiếp tục....,
39,,Waitting user Accept in game,Chờ người đồng ý vào trò chơi,
40,,{0} IS WIN - YOU RECEIVE $ {1},{0} THẮNG - BẠN NHẬN ĐƯỢC $ {1},
41,,{0} IS LOSE - YOU RECEIVE $ {1},{0} THUA - BẠN NHẬN ĐƯỢC $ {1},
42,,Do you want quit game ?,Bạn có muốn thoát trò chơi không ?,
43,,You need to update the game,Bạn cần phải cập nhật trò chơi,