Level,HP,Defence,Point,Hero,Slot,Price
1,100,10,3,2,2,0
2,130,20,3,3,2,1000
3,160,30,4,3,3,2000
4,190,40,4,4,3,3000
5,210,50,5,4,4,4000
6,240,60,5,5,4,5000
7,270,70,6,5,5,6000
8,300,80,6,6,5,7000
9,330,90,7,6,6,8000
10,360,100,7,7,6,9000
11,390,110,8,7,6,10000
12,420,120,8,8,6,11000
13,450,130,9,8,6,12000
